<?xml version="1.0" encoding="UTF-8"?>
<testsuites name="API Tests" time="9.758" tests="17" failures="3">
  <testsuite name="Root Suite" timestamp="2024-01-30T13:41:53" tests="0" time="0.000" failures="0">
  </testsuite>
  <testsuite name="Happy Path Tests user" timestamp="2024-01-30T13:41:53" tests="6" file="/Users/oksanakazanchuk/Desktop/pet-api-project/pet-api-testing-03-04/tests/api/specs/1_myTests_auth_api-test.ts" time="2.413" failures="0">
    <testcase name="User is registered and logged in" time="0.001" classname="Happy Path Tests user User is registered and logged in">
    </testcase>
    <testcase name="Get all users" time="0.178" classname="Happy Path Tests user Get all users">
    </testcase>
    <testcase name="Get current user details" time="0.373" classname="Happy Path Tests user Get current user details">
    </testcase>
    <testcase name="Update current user" time="0.085" classname="Happy Path Tests user Update current user">
    </testcase>
    <testcase name="Get current user details again" time="0.395" classname="Happy Path Tests user Get current user details again">
    </testcase>
    <testcase name="Get user current user by id" time="0.081" classname="Happy Path Tests user Get user current user by id">
    </testcase>
  </testsuite>
  <testsuite name="Happy Path Tests post" timestamp="2024-01-30T13:41:56" tests="4" file="/Users/oksanakazanchuk/Desktop/pet-api-project/pet-api-testing-03-04/tests/api/specs/2_myTests_posts_api-test.ts" time="2.819" failures="2">
    <testcase name="Create post" time="0.095" classname="Happy Path Tests post Create post">
      <failure message="expected 581 to be an integer" type="AssertionError"><![CDATA[AssertionError: expected 581 to be an integer
    at validateSchema (tests/helpers/functionsForChecking.helper.ts:31:30)
    at Context.<anonymous> (tests/api/specs/2_myTests_posts_api-test.ts:73:19)
    at processTicksAndRejections (node:internal/process/task_queues:95:5)]]></failure>
    </testcase>
    <testcase name="Check post creation" time="0.937" classname="Happy Path Tests post Check post creation">
    </testcase>
    <testcase name="Like post" time="0.770" classname="Happy Path Tests post Like post">
    </testcase>
    <testcase name="Add comment" time="0.302" classname="Happy Path Tests post Add comment">
      <failure message="expected IncomingMessage{ …(33), …(5) } to have property &apos;id&apos;" type="AssertionError"><![CDATA[AssertionError: expected IncomingMessage{ …(33), …(5) } to have property 'id'
    at validateSchema (tests/helpers/functionsForChecking.helper.ts:26:25)
    at Context.<anonymous> (tests/api/specs/2_myTests_posts_api-test.ts:118:19)
    at processTicksAndRejections (node:internal/process/task_queues:95:5)]]></failure>
    </testcase>
  </testsuite>
  <testsuite name="Negative Path Tests user" timestamp="2024-01-30T13:41:58" tests="3" file="/Users/oksanakazanchuk/Desktop/pet-api-project/pet-api-testing-03-04/tests/api/specs/3_myTests_negative_api-test.ts" time="1.575" failures="1">
    <testcase name="Registration with invalid email" time="1.367" classname="Negative Path Tests user Registration with invalid email">
      <failure message="Response time should be less than 1000ms: expected 1361 to be below 1000" type="AssertionError"><![CDATA[AssertionError: Response time should be less than 1000ms: expected 1361 to be below 1000
    at checkResponseTime (tests/helpers/functionsForChecking.helper.ts:17:11)
    at Context.<anonymous> (tests/api/specs/3_myTests_negative_api-test.ts:44:22)
    at processTicksAndRejections (node:internal/process/task_queues:95:5)

      + expected - actual

      -1361
      +1000
      ]]></failure>
    </testcase>
    <testcase name="Registration with invalid password - 3 characters" time="0.087" classname="Negative Path Tests user Registration with invalid password - 3 characters">
    </testcase>
    <testcase name="Authorisation with invalid password" time="0.101" classname="Negative Path Tests user Authorisation with invalid password">
    </testcase>
  </testsuite>
  <testsuite name="End2end user flow" timestamp="2024-01-30T13:42:00" tests="4" file="/Users/oksanakazanchuk/Desktop/pet-api-project/pet-api-testing-03-04/tests/api/specs/4_myTests_e2e_api-test.ts" time="2.944" failures="0">
    <testcase name="Get all users" time="0.442" classname="End2end user flow Get all users">
    </testcase>
    <testcase name="Get all posts" time="0.556" classname="End2end user flow Get all posts">
    </testcase>
    <testcase name="Create post" time="0.347" classname="End2end user flow Create post">
    </testcase>
    <testcase name="Like post" time="0.657" classname="End2end user flow Like post">
    </testcase>
  </testsuite>
</testsuites>